R Tutorial: Statistical Inference 1
…
In its most simple form the t-test is a location test of whether the mean of a population has a value specified in the null hypothesis. The data, and hence the sample mean, must follow a normal distribution in order for the test to work.

Data

The first dataset I create contains 75 individuals identified by an id for which a certain variable of interest was recorded. The variable was generated with function rnorm() and follows a normal distribution with a mean of 5 and standard deviation of 2. Since the values are drawn randomly from the distribution, it is important to use function set.seed() in order to obtain replicable results.

set.seed(123)
dataset_1 <- tibble(
  id = as.character(c(1:75)),
  variable = rnorm(n = 75, mean = 5, sd = 3)
  )

dataset_1

## # A tibble: 75 x 2
##    id    variable
##    <chr>    <dbl>
##  1 1         3.32
##  2 2         4.31
##  3 3         9.68
##  4 4         5.21
##  5 5         5.39
##  6 6        10.1 
##  7 7         6.38
##  8 8         1.20
##  9 9         2.94
## 10 10        3.66
## # ... with 65 more rows
…
Data

For the dataset in this section I create 50 observations for men and women each of a variable of interest. Both groups are normally distributed with an identical standard deviation but their mean is different as seen below.

set.seed(123)
dataset_2 <- tibble(
  men = rnorm(50, mean = 5, sd = 2), 
  women = rnorm(50, mean = 8, sd = 2)
  ) %>%
  pivot_longer(cols = c(men, women),names_to = "group", values_to = "variable")

dataset_2

## # A tibble: 100 x 2
##    group variable
##    <chr>    <dbl>
##  1 men       3.88
##  2 women     8.51
##  3 men       4.54
##  4 women     7.94
##  5 men       8.12
##  6 women     7.91
##  7 men       5.14
##  8 women    10.7 
##  9 men       5.26
## 10 women     7.55
## # ... with 90 more rows
…
Data

The next dataset is similar to the previously generated dataset, except that the variance of the distribution of women and men is different by design.

set.seed(123)
dataset_3 <- tibble(
  men = rnorm(50, mean = 5, sd = 8), 
  women = rnorm(50, mean = 8, sd = 2)
  ) %>%
  pivot_longer(cols = c(men, women),names_to = "group", values_to = "variable")

dataset_3

## # A tibble: 100 x 2
##    group variable
##    <chr>    <dbl>
##  1 men      0.516
##  2 women    8.51 
##  3 men      3.16 
##  4 women    7.94 
##  5 men     17.5  
##  6 women    7.91 
##  7 men      5.56 
##  8 women   10.7  
##  9 men      6.03 
## 10 women    7.55 
## # ... with 90 more rows
…
Data

The dataset from the previous section is slightly modified such that the variable of interest for the two groups now follows a log normal distribution, which I created with function rlnorm().

set.seed(123)
dataset_4 <- tibble(
  men = rlnorm(50, meanlog = 1, sdlog = 0.6), 
  women = rlnorm(50, meanlog = 1.2, sdlog = 0.6)
  ) %>%
  pivot_longer(cols = c(men, women),names_to = "group", values_to = "variable")

dataset_4

## # A tibble: 100 x 2
##    group variable
##    <chr>    <dbl>
##  1 men       1.94
##  2 women     3.87
##  3 men       2.37
##  4 women     3.26
##  5 men       6.93
##  6 women     3.24
##  7 men       2.84
##  8 women     7.55
##  9 men       2.94
## 10 women     2.90
## # ... with 90 more rows
…
The next dataset is generated such that 50 individuals which are identified by an id were observed before and after a treatment. The observations are drawn from a normal distribution but the parameters differ before and after the treatment.

set.seed(123)
dataset_5 <- tibble(
  id = c(1:50),
  before_treatment = rnorm(50, mean = 3, sd = 1),
  after_treatment = rnorm(50, mean = 5, sd = 1)
  ) %>%
  pivot_longer(cols = c(before_treatment, after_treatment), 
               names_to = "group", values_to = "variable")

dataset_5

## # A tibble: 100 x 3
##       id group            variable
##    <int> <chr>               <dbl>
##  1     1 before_treatment     2.44
##  2     1 after_treatment      5.25
##  3     2 before_treatment     2.77
##  4     2 after_treatment      4.97
##  5     3 before_treatment     4.56
##  6     3 after_treatment      4.96
##  7     4 before_treatment     3.07
##  8     4 after_treatment      6.37
##  9     5 before_treatment     3.13
## 10     5 after_treatment      4.77
## # ... with 90 more rows
…
Now, a dataset is generated where observations are related but drawn from a log normal distribution.

set.seed(123)
dataset_6 <- tibble(
  id = c(1:50),
  before_treatment = rlnorm(50, meanlog = 2, sdlog = 0.7), 
  after_treatment = rlnorm(50, meanlog = 1, sdlog = 0.6)
  ) %>%
  pivot_longer(cols = c(before_treatment, after_treatment), 
               names_to = "group", values_to = "variable")

dataset_6

## # A tibble: 100 x 3
##       id group            variable
##    <int> <chr>               <dbl>
##  1     1 before_treatment     4.99
##  2     1 after_treatment      3.16
##  3     2 before_treatment     6.29
##  4     2 after_treatment      2.67
##  5     3 before_treatment    22.0 
##  6     3 after_treatment      2.65
##  7     4 before_treatment     7.76
##  8     4 after_treatment      6.18
##  9     5 before_treatment     8.09
## 10     5 after_treatment      2.37
## # ... with 90 more rows
…
set.seed(345)
dataset_7 <- tibble(
  group_A = rnorm(30, mean = 1, sd = 2), 
  group_C = rnorm(30, mean = 4, sd = 2),
  group_B = rnorm(30, mean = 3, sd = 2)
  ) %>%
  pivot_longer(cols = starts_with("group"), 
               names_to = "group", 
               names_pattern = "._(.+)", 
               values_to = "variable") %>%
  mutate(group = factor(group))

dataset_7

## # A tibble: 90 x 2
##    group variable
##    <fct>    <dbl>
##  1 A       -0.570
##  2 C        2.51 
##  3 B        1.70 
##  4 A        0.441
##  5 C        5.37 
##  6 B        1.83 
##  7 A        0.677
##  8 C        2.07 
##  9 B        4.22 
## 10 A        0.419
## # ... with 80 more rows
…
dataset_8

## # A tibble: 90 x 2
##    group variable
##    <ord>    <dbl>
##  1 A       -0.570
##  2 C        0.285
##  3 B       -2.21 
##  4 A        0.441
##  5 C        7.42 
##  6 B       -1.67 
##  7 A        0.677
##  8 C       -0.821
##  9 B        7.87 
## 10 A        0.419
## # ... with 80 more rows
…
dataset_9

## # A tibble: 90 x 2
##    group variable
##    <ord>    <dbl>
##  1 A         2.15
##  2 C         3.59
##  3 B         4.98
##  4 A         2.50
##  5 C         5.50
##  6 B         5.08
##  7 A         2.59
##  8 C         3.36
##  9 B         7.26
## 10 A         2.49
## # ... with 80 more rows
…
dataset_12

## # A tibble: 60 x 3
##    group height weight
##    <fct>  <dbl>  <dbl>
##  1 A       2.22   4.35
##  2 B       4.94   7.86
##  3 C       4.13   4.14
##  4 A       2.72   4.42
##  5 B       5.33   5.58
##  6 C       4.34   5.01
##  7 A       2.84   5.61
##  8 B       1.92   5.48
##  9 C       2.65   6.38
## 10 A       2.71   3.79
## # ... with 50 more rows
…
As a non-parametric estimation method, the bootstrap quantifies the uncertainty of an estimator involved with the standard deviation. This can for example be very helpful if the sample size is relatively small or when the underlying distribution cannot be approximated parametrically.

Data

I create a dataset with 30 observations of two variables of interest (height and weight) which are sampled from a range of given values.

set.seed(345)
dataset_13 <- tibble(
  height = sample(170:190, 30, replace = TRUE), 
  weight = sample(70:90, 30, replace = TRUE)
  )

dataset_13

## # A tibble: 30 x 2
##    height weight
##     <int>  <int>
##  1    188     80
##  2    190     88
##  3    187     70
##  4    189     74
##  5    177     78
##  6    170     81
##  7    178     90
##  8    171     75
##  9    188     86
## 10    174     70
## # ... with 20 more rows
…
