R Tutorial: Linear Regression 3
…
the special treatment unusual data points

the transformation of variables.

Example model

Below Im using the average number of rooms per dwelling rm to predict the median value of owner-occupied homes medv (more rooms = higher value?). Im using OLS to estimate the model, which is implemented in function lm().

example.model <- lm(medv ~ rm, data = Boston)

The R package broom offers many functions to ease the handling of the output generated by lm() and other related functions. With augment() we can transform an lm object to a tibble which then includes the variables used in the model but also other measures like the fitted values (.fitted ) or residuals (.resid).

broom::augment(example.model)

## # A tibble: 506 x 8
##     medv    rm .fitted  .resid .std.resid    .hat .sigma     .cooksd
##    <dbl> <dbl>   <dbl>   <dbl>      <dbl>   <dbl>  <dbl>       <dbl>
##  1 24000  6.58  25176. -1176.     -0.178  0.00231  6623. 0.0000367  
##  2 21600  6.42  23774. -2174.     -0.329  0.00205  6622. 0.000111   
##  3 34700  7.18  30728.  3972.      0.602  0.00523  6620. 0.000952   
##  4 33400  7.00  29026.  4374.      0.662  0.00402  6620. 0.000885   
##  5 36200  7.15  30382.  5818.      0.882  0.00496  6618. 0.00194    
##  6 28700  6.43  23856.  4844.      0.733  0.00206  6619. 0.000555   
##  7 22900  6.01  20051.  2849.      0.431  0.00227  6622. 0.000212   
##  8 27100  6.17  21508.  5592.      0.846  0.00203  6618. 0.000727   
##  9 16500  5.63  16583.   -83.4    -0.0126 0.00369  6623. 0.000000295
## 10 18900  6.00  19978. -1078.     -0.163  0.00229  6623. 0.0000306  
## # ... with 496 more rows
…
