R Tutorial: Binary Regression 1
…
probability_data2 %>%
  group_by(ccs, black) %>%
  slice(1:2)

## # A tibble: 24 x 7
## # Groups:   ccs, black [12]
##       dir ccs   black pred.prob      se      ll     ul
##     <dbl> <fct> <fct>     <dbl>   <dbl>   <dbl>  <dbl>
##  1 0      1     no      0.00943 0.00269 0.00417 0.0147
##  2 0.158  1     no      0.0211  0.00391 0.0135  0.0288
##  3 0.0789 1     yes     0.0355  0.00930 0.0172  0.0537
##  4 0.237  1     yes     0.0769  0.0139  0.0496  0.104 
##  5 0      2     no      0.0191  0.00558 0.00820 0.0301
##  6 0.158  2     no      0.0423  0.00840 0.0259  0.0588
##  7 0.0789 2     yes     0.0700  0.0184  0.0339  0.106 
##  8 0.237  2     yes     0.146   0.0268  0.0932  0.198 
##  9 0      3     no      0.0259  0.00921 0.00783 0.0439
## 10 0.158  3     no      0.0568  0.0156  0.0262  0.0873
## # ... with 14 more rows
…
